\relax 
\@writefile{toc}{\contentsline {section}{\numberline {1}Usage and Testing}{1}}
\newlabel{S:1}{{1}{1}}
\@writefile{toc}{\contentsline {subsection}{\numberline {1.1}Manager Configuration File}{1}}
\@writefile{toc}{\contentsline {subsection}{\numberline {1.2}Manager Process}{2}}
\@writefile{toc}{\contentsline {subsection}{\numberline {1.3}Client Process}{3}}
\@writefile{toc}{\contentsline {subsubsection}{\numberline {1.3.1}The PUT and GET commands}{4}}
\@writefile{toc}{\contentsline {subsubsection}{\numberline {1.3.2}The DEL command}{4}}
\@writefile{toc}{\contentsline {subsubsection}{\numberline {1.3.3}The BROWSE command}{4}}
\@writefile{toc}{\contentsline {subsubsection}{\numberline {1.3.4}Invalid commands}{5}}
\@writefile{toc}{\contentsline {section}{\numberline {2}System Documentation}{5}}
\newlabel{S:2}{{2}{5}}
\bibstyle{model1-num-names}
\bibdata{sample.bib}
\@writefile{toc}{\contentsline {section}{\numberline {3}Conclusion}{6}}
